/* XPM */
static const char * icon32x32_xpm[] = {
"32 32 122 2",
"  	c #404061",
". 	c #52526D",
"+ 	c #5C5C74",
"@ 	c #5B5C74",
"# 	c #4C4C69",
"$ 	c #474765",
"% 	c #50506C",
"& 	c #404161",
"* 	c #414162",
"= 	c #BEBEC4",
"- 	c #D4D4D8",
"; 	c #8A8A98",
"> 	c #AAAAB3",
", 	c #CFCFD3",
"' 	c #FFFFFF",
") 	c #AEAEB6",
"! 	c #858693",
"~ 	c #F7F7F8",
"{ 	c #CDCDD1",
"] 	c #90909C",
"^ 	c #C2C2C8",
"/ 	c #BABAC1",
"( 	c #454564",
"_ 	c #DFDFE3",
": 	c #D5D5D9",
"< 	c #474766",
"[ 	c #474866",
"} 	c #484866",
"| 	c #434363",
"1 	c #606077",
"2 	c #616177",
"3 	c #9B9BA5",
"4 	c #EAEAEB",
"5 	c #EBEBED",
"6 	c #55556F",
"7 	c #7F7F8E",
"8 	c #C5C5CB",
"9 	c #B0B0B8",
"0 	c #CCCCD1",
"a 	c #5B5C73",
"b 	c #575770",
"c 	c #F3F3F4",
"d 	c #BDBDC3",
"e 	c #A5A5AE",
"f 	c #D6D6D9",
"g 	c #C4C4C9",
"h 	c #56566F",
"i 	c #E4E4E7",
"j 	c #A5A5AF",
"k 	c #E6E6E8",
"l 	c #66667A",
"m 	c #B2B2B9",
"n 	c #9595A0",
"o 	c #E9E9EB",
"p 	c #E9E9EA",
"q 	c #7E7E8D",
"r 	c #B5B5BC",
"s 	c #EAEAEC",
"t 	c #626277",
"u 	c #A8A8B0",
"v 	c #C1C1C7",
"w 	c #D3D3D7",
"x 	c #DADADD",
"y 	c #92929E",
"z 	c #5E5F75",
"A 	c #D0D0D4",
"B 	c #5C5C73",
"C 	c #A2A2AC",
"D 	c #8F8F9B",
"E 	c #464665",
"F 	c #DDDDE0",
"G 	c #E4E4E6",
"H 	c #E8E8EA",
"I 	c #878794",
"J 	c #8B8B98",
"K 	c #BFBFC5",
"L 	c #DEDEE1",
"M 	c #FCFCFD",
"N 	c #464765",
"O 	c #8D8D99",
"P 	c #68687C",
"Q 	c #ABABB3",
"R 	c #D2D2D6",
"S 	c #9C9CA6",
"T 	c #727283",
"U 	c #767687",
"V 	c #4A4B68",
"W 	c #E2E2E4",
"X 	c #D1D1D5",
"Y 	c #E5E5E7",
"Z 	c #9898A3",
"` 	c #BBBBC1",
" .	c #DCDCDF",
"..	c #A4A4AE",
"+.	c #ADADB5",
"@.	c #828290",
"#.	c #A9A9B2",
"$.	c #DFDFE2",
"%.	c #ECECEE",
"&.	c #868694",
"*.	c #C0C0C6",
"=.	c #E7E7EA",
"-.	c #E0E0E3",
";.	c #707082",
">.	c #9797A2",
",.	c #D8D8DC",
"'.	c #9696A1",
").	c #B6B6BD",
"!.	c #50506B",
"~.	c #53536E",
"{.	c #ADADB6",
"].	c #EDEDEE",
"^.	c #8D8D9A",
"/.	c #4D4D6A",
"(.	c #777788",
"_.	c #E2E2E5",
":.	c #828191",
"<.	c #B4B4BB",
"[.	c #CACACF",
"}.	c #9D9DA7",
"|.	c #55556E",
"1.	c #707183",
"                                                                ",
"                                                                ",
"                                                                ",
"                                                                ",
"                                                                ",
"                                                                ",
"                        . + + @ + # $ @ @ @ % &                 ",
"            * = - ; >   , ' ' ' ' ) ! ' ' ' ' ~ { +             ",
"            ] ^ / ( _   , : < [ } | ! ' 1 } 2 3 4 5 6           ",
"            7 - 8 9 0   , -         ! ' a       b c d           ",
"              e f g h   , i j j j 1 ! ' a         g k           ",
"        l m m m m m n   , ~ o p o q ! ' a         r s           ",
"        t u v w u u -   , -         ! ' a         x x           ",
"            y ^   z A   , -         ! ' B       C ' D           ",
"            E F G H I   , o / / / J ! ' K / ^ L M 9             ",
"              N O P     Q R R R R S T R R R A K U               ",
"            V W X Y Z                                           ",
"            y `   b  .      7 ..            +.P                 ",
"            @.,   q w       #.$.            %.&.                ",
"              *.=.-.;.      #.$.& &         %.&.                ",
"            h >.  2 n   o ' ' ' ' ' I +.' ' ' ' ' ,.            ",
"            '.).  | -.  !.~.{.-.~.~.( } ~.~.].^.~./.            ",
"            (._.:.<.[.      #.$.            %.&.                ",
"              }.R g |.      J r             K 1.                ",
"                                                                ",
"                                                                ",
"                                                                ",
"                                                                ",
"                                                                ",
"                                                                ",
"                                                                ",
"                                                                "};
